C:\Users\Honsing\Documents\Sistematico\src\main\java\Modelo\Product.java
C:\Users\Honsing\Documents\Sistematico\src\main\java\Controlador\Controlador.java
C:\Users\Honsing\Documents\Sistematico\src\main\java\Vista\ProductView.java
